mijaki@peerbits.com,shoaib,mijaki,,NA,,NA,NA,NA,123456
mijaki@peerbits.com,shoaib,mijaki,,NA,,NA,NA,NA,123456
mijaki@peerbits.com,shoaib,mijaki,,NA,,NA,NA,NA,123456
mijaki@peerbits.com,shoaib,mijaki,,NA,,NA,NA,NA,123456
mijaki@peerbits.com,shoaib,mijaki,,NA,,NA,NA,NA,123456
mijaki@peerbits.com,shoaib,mijaki,,NA,,NA,NA,NA,123456
mijaki@peerbits.com,shoaib,mijaki,,NA,,NA,NA,NA,123456
